…
Load the LIDAR

``` r
data("lidar")
```

``` r
lidar
```

    ## # A tibble: 221 × 2
    ##    range logratio
    ##    <dbl>    <dbl>
    ##  1   390  -0.0504
    ##  2   391  -0.0601
    ##  3   393  -0.0419
    ##  4   394  -0.0510
    ##  5   396  -0.0599
    ##  6   397  -0.0284
    ##  7   399  -0.0596
    ##  8   400  -0.0399
    ##  9   402  -0.0294
    ## 10   403  -0.0395
    ## # ℹ 211 more rows
…
Did this work? Yes!

``` r
cv_df |> pull(train) |> nth(2) #pull out each testing split
```

    ## # A tibble: 176 × 3
    ##    range logratio    id
    ##    <dbl>    <dbl> <int>
    ##  1   390  -0.0504     1
    ##  2   393  -0.0419     3
    ##  3   394  -0.0510     4
    ##  4   396  -0.0599     5
    ##  5   397  -0.0284     6
    ##  6   399  -0.0596     7
    ##  7   400  -0.0399     8
    ##  8   402  -0.0294     9
    ##  9   403  -0.0395    10
    ## 10   405  -0.0476    11
    ## # ℹ 166 more rows
…
